{
    "interactionModel": {
        "languageModel": {
            "invocationName": "voicetofactory",
            "intents": [
                {
                    "name": "AMAZON.CancelIntent",
                    "samples": []
                },
                {
                    "name": "AMAZON.HelpIntent",
                    "samples": []
                },
                {
                    "name": "AMAZON.StopIntent",
                    "samples": [
                        "termina"
                    ]
                },
                {
                    "name": "Arranca",
                    "slots": [
                        {
                            "name": "Line",
                            "type": "Line",
                            "samples": [
                                "{Line} "
                            ]
                        }
                    ],
                    "samples": [
                        "Arranca la linea {Line}",
                        "Arranca el trabajo de la línea {Line}"
                    ]
                },
                {
                    "name": "Para",
                    "slots": [
                        {
                            "name": "Line",
                            "type": "Line",
                            "samples": [
                                "{Line} "
                            ]
                        }
                    ],
                    "samples": [
                        "Para la linea {Line}",
                        "Para el trabajo de la línea {Line}"
                    ]
                },
                {
                    "name": "AumentaVelocidad",
                    "slots": [
                        {
                            "name": "Line",
                            "type": "Line",
                            "samples": [
                                "{Line} "
                            ]
                        },
                        {
                            "name": "Velocidad",
                            "type": "AMAZON.NUMBER",
                            "samples": [
                                "{Velocidad} "
                            ]
                        }
                    ],
                    "samples": [
                        "Aumenta la velocidad a {Velocidad} en la línea {Line}"
                    ]
                },
                {
                    "name": "DisminuyeVelocidad",
                    "slots": [
                        {
                            "name": "Line",
                            "type": "Line",
                            "samples": [
                                "{Line} "
                            ]
                        },
                        {
                            "name": "Velocidad",
                            "type": "AMAZON.NUMBER",
                            "samples": [
                                "{Velocidad} "
                            ]
                        }
                    ],
                    "samples": [
                        "Disminuye la velocidad a {Velocidad} en la línea {Line}"
                    ]
                },
                {
                    "name": "AnyadeUnidades",
                    "slots": [
                        {
                            "name": "OrdenTrabajo",
                            "type": "AMAZON.NUMBER",
                            "samples": [
                                "{OrdenTrabajo} "
                            ]
                        },
                        {
                            "name": "Unidades",
                            "type": "AMAZON.NUMBER",
                            "samples": [
                                "{Unidades} "
                            ]
                        }
                    ],
                    "samples": [
                        "Añade {Unidades} unidades a la orden de trabajo {OrdenTrabajo}"
                    ]
                },
                {
                    "name": "AnyadeMedicion",
                    "slots": [
                        {
                            "name": "OrdenTrabajo",
                            "type": "AMAZON.NUMBER",
                            "samples": [
                                "{OrdenTrabajo} "
                            ]
                        },
                        {
                            "name": "Medicion",
                            "type": "Medicion",
                            "samples": [
                                "{Medicion} "
                            ]
                        }
                    ],
                    "samples": [
                        "Añade Medición de estado de {Medicion} a la orden de trabajo {OrdenTrabajo}"
                    ]
                },
                {
                    "name": "AccionSobreOrdenTrabajo",
                    "slots": [
                        {
                            "name": "OrdenTrabajo",
                            "type": "AMAZON.NUMBER",
                            "samples": [
                                "{OrdenTrabajo} "
                            ]
                        },
                        {
                            "name": "Accion",
                            "type": "Accion",
                            "samples": [
                                "{Accion} "
                            ]
                        },
                        {
                            "name": "Line",
                            "type": "Line",
                            "samples": [
                                "{Line} "
                            ]
                        }
                    ],
                    "samples": [
                        "{Accion} la orden de trabajo {OrdenTrabajo} en la línea {Line}"
                    ]
                },
                {
                    "name": "AMAZON.NavigateHomeIntent",
                    "samples": []
                }
            ],
            "types": [
                {
                    "name": "Accion",
                    "values": [
                        {
                            "name": {
                                "value": "Arranca"
                            }
                        },
                        {
                            "name": {
                                "value": "Pausa"
                            }
                        },
                        {
                            "name": {
                                "value": "Reanuda"
                            }
                        },
                        {
                            "name": {
                                "value": "Termina"
                            }
                        }
                    ]
                },
                {
                    "name": "Line",
                    "values": [
                        {
                            "name": {
                                "value": "A"
                            }
                        },
                        {
                            "name": {
                                "value": "B"
                            }
                        },
                        {
                            "name": {
                                "value": "C"
                            }
                        },
                        {
                            "name": {
                                "value": "D"
                            }
                        }
                    ]
                },
                {
                    "name": "Medicion",
                    "values": [
                        {
                            "name": {
                                "value": "Velocidad"
                            }
                        },
                        {
                            "name": {
                                "value": "Corte"
                            }
                        },
                        {
                            "name": {
                                "value": "Temperatura"
                            }
                        }
                    ]
                }
            ]
        },
        "dialog": {
            "intents": [
                {
                    "name": "AMAZON.StopIntent",
                    "confirmationRequired": false,
                    "prompts": {},
                    "slots": []
                },
                {
                    "name": "Arranca",
                    "confirmationRequired": false,
                    "prompts": {},
                    "slots": [
                        {
                            "name": "Line",
                            "type": "Line",
                            "confirmationRequired": true,
                            "elicitationRequired": false,
                            "prompts": {
                                "confirmation": "Confirm.Intent-Arranca.IntentSlot-Line"
                            }
                        }
                    ]
                },
                {
                    "name": "Para",
                    "confirmationRequired": false,
                    "prompts": {},
                    "slots": [
                        {
                            "name": "Line",
                            "type": "Line",
                            "confirmationRequired": false,
                            "elicitationRequired": false,
                            "prompts": {}
                        }
                    ]
                },
                {
                    "name": "AumentaVelocidad",
                    "confirmationRequired": false,
                    "prompts": {},
                    "slots": [
                        {
                            "name": "Line",
                            "type": "Line",
                            "confirmationRequired": false,
                            "elicitationRequired": true,
                            "prompts": {
                                "elicitation": "Elicit.Intent-AumentaVelocidad.IntentSlot-Line"
                            }
                        },
                        {
                            "name": "Velocidad",
                            "type": "AMAZON.NUMBER",
                            "confirmationRequired": false,
                            "elicitationRequired": true,
                            "prompts": {
                                "elicitation": "Elicit.Intent-AumentaVelocidad.IntentSlot-Velocidad"
                            }
                        }
                    ]
                },
                {
                    "name": "DisminuyeVelocidad",
                    "confirmationRequired": false,
                    "prompts": {},
                    "slots": [
                        {
                            "name": "Line",
                            "type": "Line",
                            "confirmationRequired": false,
                            "elicitationRequired": true,
                            "prompts": {
                                "elicitation": "Elicit.Intent-DisminuyeVelocidad.IntentSlot-Line"
                            }
                        },
                        {
                            "name": "Velocidad",
                            "type": "AMAZON.NUMBER",
                            "confirmationRequired": false,
                            "elicitationRequired": true,
                            "prompts": {
                                "elicitation": "Elicit.Intent-DisminuyeVelocidad.IntentSlot-Velocidad"
                            }
                        }
                    ]
                },
                {
                    "name": "AnyadeUnidades",
                    "confirmationRequired": false,
                    "prompts": {},
                    "slots": [
                        {
                            "name": "OrdenTrabajo",
                            "type": "AMAZON.NUMBER",
                            "confirmationRequired": false,
                            "elicitationRequired": true,
                            "prompts": {
                                "elicitation": "Elicit.Intent-AnyadeUnidades.IntentSlot-OrdenTrabajo"
                            }
                        },
                        {
                            "name": "Unidades",
                            "type": "AMAZON.NUMBER",
                            "confirmationRequired": false,
                            "elicitationRequired": true,
                            "prompts": {
                                "elicitation": "Elicit.Intent-AnyadeUnidades.IntentSlot-Unidades"
                            }
                        }
                    ]
                },
                {
                    "name": "AnyadeMedicion",
                    "confirmationRequired": false,
                    "prompts": {},
                    "slots": [
                        {
                            "name": "OrdenTrabajo",
                            "type": "AMAZON.NUMBER",
                            "confirmationRequired": false,
                            "elicitationRequired": false,
                            "prompts": {}
                        },
                        {
                            "name": "Medicion",
                            "type": "Medicion",
                            "confirmationRequired": false,
                            "elicitationRequired": false,
                            "prompts": {}
                        }
                    ]
                },
                {
                    "name": "AccionSobreOrdenTrabajo",
                    "confirmationRequired": true,
                    "prompts": {
                        "confirmation": "Confirm.Intent-AccionSobreOrdenTrabajo"
                    },
                    "slots": [
                        {
                            "name": "OrdenTrabajo",
                            "type": "AMAZON.NUMBER",
                            "confirmationRequired": false,
                            "elicitationRequired": false,
                            "prompts": {}
                        },
                        {
                            "name": "Accion",
                            "type": "Accion",
                            "confirmationRequired": true,
                            "elicitationRequired": false,
                            "prompts": {
                                "confirmation": "Confirm.Intent-AccionSobreOrdenTrabajo.IntentSlot-Accion"
                            }
                        },
                        {
                            "name": "Line",
                            "type": "Line",
                            "confirmationRequired": false,
                            "elicitationRequired": true,
                            "prompts": {
                                "elicitation": "Elicit.Intent-AccionSobreOrdenTrabajo.IntentSlot-Line"
                            }
                        }
                    ]
                }
            ],
            "delegationStrategy": "SKILL_RESPONSE"
        },
        "prompts": [
            {
                "id": "Elicit.Intent-Arranca.IntentSlot-Line",
                "variations": [
                    {
                        "type": "PlainText",
                        "value": "¿Que línea desea que empiece a trabajar?"
                    }
                ]
            },
            {
                "id": "Confirm.Intent-Arranca.IntentSlot-Line",
                "variations": [
                    {
                        "type": "PlainText",
                        "value": "¿Desea empezar trabajo en la línea {Line}?"
                    }
                ]
            },
            {
                "id": "Elicit.Intent-Para.IntentSlot-Line",
                "variations": [
                    {
                        "type": "PlainText",
                        "value": "¿Que línea desea detener?"
                    }
                ]
            },
            {
                "id": "Confirm.Intent-Para.IntentSlot-Line",
                "variations": [
                    {
                        "type": "PlainText",
                        "value": "¿Desea detener el trabajo en la línea {Line}?"
                    }
                ]
            },
            {
                "id": "Elicit.Intent-AumentaVelocidad.IntentSlot-Line",
                "variations": [
                    {
                        "type": "PlainText",
                        "value": "¿Sobre que línea desea aumentar la velocidad?"
                    }
                ]
            },
            {
                "id": "Elicit.Intent-AumentaVelocidad.IntentSlot-Velocidad",
                "variations": [
                    {
                        "type": "PlainText",
                        "value": "¿Que porcentaje desea aumentar la velocidad?"
                    }
                ]
            },
            {
                "id": "Elicit.Intent-DisminuyeVelocidad.IntentSlot-Line",
                "variations": [
                    {
                        "type": "PlainText",
                        "value": "¿Sobre que línea desea disminuir la velocidad?"
                    }
                ]
            },
            {
                "id": "Elicit.Intent-DisminuyeVelocidad.IntentSlot-Velocidad",
                "variations": [
                    {
                        "type": "PlainText",
                        "value": "¿Que porcentaje desea disminuir la velocidad?"
                    }
                ]
            },
            {
                "id": "Elicit.Intent-AnyadeUnidades.IntentSlot-OrdenTrabajo",
                "variations": [
                    {
                        "type": "PlainText",
                        "value": "¿Que orden de trabajo desea cambiar?"
                    }
                ]
            },
            {
                "id": "Elicit.Intent-AnyadeUnidades.IntentSlot-Unidades",
                "variations": [
                    {
                        "type": "PlainText",
                        "value": "¿Cuantas unidades desea añadir?"
                    }
                ]
            },
            {
                "id": "Confirm.Intent-AccionSobreOrdenTrabajo.IntentSlot-Accion",
                "variations": [
                    {
                        "type": "PlainText",
                        "value": "¿Desea realizar la acción {Accion} sobre la orden de trabajo {OrdenTrabajo}"
                    }
                ]
            },
            {
                "id": "Elicit.Intent-AccionSobreOrdenTrabajo.IntentSlot-Line",
                "variations": [
                    {
                        "type": "PlainText",
                        "value": "¿Sobre que línea de trabajo desea aplicar la acción?"
                    }
                ]
            },
            {
                "id": "Confirm.Intent-AccionSobreOrdenTrabajo",
                "variations": [
                    {
                        "type": "PlainText",
                        "value": "¿Desea {Accion} la orden de trabajo {OrdenTrabajo} en la línea {Line}?"
                    }
                ]
            }
        ]
    }
}